5 Capítulo 4 – Manipulação de Dados com R – Introdução à Computação Aplicada às Ciências Atmosféricas
…
         Código Nome da Estação              UF         Janeiro       Fevereiro 
              0               0               0              15               3 
          Março           Abril            Maio           Junho           Julho 
              6               2               4               7              18 
         Agosto        Setembro         Outubro        Novembro        Dezembro 
              2               0               1               2               6 
            Ano 
             48 

#ver linhas que contêm pelo menos um NA
dados_nc  |> 
  filter(if_any(everything(), is.na))

# A tibble: 48 × 16
   Código `Nome da Estação`  UF    Janeiro Fevereiro Março Abril  Maio Junho
    <dbl> <chr>              <chr>   <dbl>     <dbl> <dbl> <dbl> <dbl> <dbl>
 1  82989 AGUA BRANCA        AL       31.1      NA    30.7  29.5  27.2  25.1
 2  82353 ALTAMIRA           PA       31.6      31.2  31.3  31.6  32.1  32.9
 3  82890 ARCOVERDE          PE       NA        31.6  31.3  30.2  28.2  26.5
 4  82768 BALSAS             MA       31.3      31.5  31.7  32.2  32.9  33.5
 5  83179 BARRA              BA       33.4      33.3  NA    33.2  33    32.5
 6  82410 BENJAMIN CONSTANT  AM       NA        31.6  31.9  31.8  31.6  31.4
 7  82024 BOA VISTA          RR       NA        34.1  34.7  34.1  32.4  32  
 8  82975 BOM JESUS DO PIAUI PI       NA        33.2  33    33.3  33.9  34.1
 9  82886 CABROBO            PE       33.8      33.2  33    32.6  31.5  NA  
10  82795 CAMPINA GRANDE     PB       30.7      30.7  30.3  29.5  28.2  26.4
# ℹ 38 more rows
# ℹ 7 more variables: Julho <dbl>, Agosto <dbl>, Setembro <dbl>, Outubro <dbl>,
#   Novembro <dbl>, Dezembro <dbl>, Ano <dbl>
…
    Fev = Fevereiro,
    Mar = Março,
    Abr = Abril,
    Mai = Maio,
    Jun = Junho,
    Jul = Julho,
    Ago = Agosto,
    Set = Setembro,
    Out = Outubro,
    Nov = Novembro,
    Dez = Dezembro
  )
TMAX_INMET

# A tibble: 190 × 16
   Código Estacao    UF      Jan   Fev   Mar   Abr   Mai   Jun   Jul   Ago   Set
    <dbl> <chr>      <chr> <dbl> <dbl> <dbl> <dbl> <dbl> <dbl> <dbl> <dbl> <dbl>
 1  82989 AGUA BRAN… AL     31.1  NA    30.7  29.5  27.2  25.1  24.2  25.2  27.6
 2  83249 ALAGOINHAS BA     33.1  33    33.1  31.1  29.2  27.7  27.2  27.4  28.8
 3  82353 ALTAMIRA   PA     31.6  31.2  31.3  31.6  32.1  32.9  NA    34.5  34.8
 4  83007 ALTO DA B… RJ     30.2  30.6  29.1  27.5  25    24.3  24.1  24.6  25.2
 5  82970 ALTO PARN… MA     32    32    32.2  32.7  33.2  33.3  33.8  35.3  36.7
 6  83096 ARACAJU    SE     30.6  30.8  30.9  30.4  29.6  28.6  27.9  27.9  28.4
 7  83442 ARACUAI    MG     33.7  34.7  33.7  32.6  30.9  29.8  29.6  31    32.8
 8  83368 ARAGARCAS  GO     31.9  32.1  32.5  33    32.5  32.5  33.1  35.4  36.5
 9  82659 ARAGUAINA  TO     30.8  31    31    31.5  32.2  33    33.8  35.1  34.8
10  83579 ARAXA      MG     28.3  28.8  28.1  27.8  26    25.3  25.5  27.6  29  
# ℹ 180 more rows
# ℹ 4 more variables: Out <dbl>, Nov <dbl>, Dez <dbl>, Ano <dbl>

# Pivotando 

TMAX_longer <- 
  TMAX_INMET |> 
  dplyr::mutate(Ano = NULL) |> 
  tidyr::pivot_longer(
    cols = Jan:Dez,      
    names_to = 'Meses',  
    values_to = 'Tmax'
  )
TMAX_longer

# A tibble: 2,280 × 5
   Código Estacao     UF    Meses  Tmax
    <dbl> <chr>       <chr> <chr> <dbl>
 1  82989 AGUA BRANCA AL    Jan    31.1
 2  82989 AGUA BRANCA AL    Fev    NA  
 3  82989 AGUA BRANCA AL    Mar    30.7
 4  82989 AGUA BRANCA AL    Abr    29.5
 5  82989 AGUA BRANCA AL    Mai    27.2
 6  82989 AGUA BRANCA AL    Jun    25.1
 7  82989 AGUA BRANCA AL    Jul    24.2
 8  82989 AGUA BRANCA AL    Ago    25.2
 9  82989 AGUA BRANCA AL    Set    27.6
10  82989 AGUA BRANCA AL    Out    30  
# ℹ 2,270 more rows

# Filtrando os dados UF == SP 

TMAX_SP <- 
  TMAX_longer |> 
  dplyr::filter(UF == 'SP')

TMAX_SP

# A tibble: 72 × 5
   Código Estacao          UF    Meses  Tmax
    <dbl> <chr>            <chr> <chr> <dbl>
 1  83714 CAMPOS DO JORDAO SP    Jan    NA  
 2  83714 CAMPOS DO JORDAO SP    Fev    23  
 3  83714 CAMPOS DO JORDAO SP    Mar    22  
 4  83714 CAMPOS DO JORDAO SP    Abr    20.8
 5  83714 CAMPOS DO JORDAO SP    Mai    18.1
 6  83714 CAMPOS DO JORDAO SP    Jun    17.5
 7  83714 CAMPOS DO JORDAO SP    Jul    17.8
 8  83714 CAMPOS DO JORDAO SP    Ago    19.6
 9  83714 CAMPOS DO JORDAO SP    Set    21  
10  83714 CAMPOS DO JORDAO SP    Out    21.8
# ℹ 62 more rows
…
#FAÇA VOCÊ
# Gerar gráfico para os dados do MA

#
TMAX_UF <- 
  TMAX_longer |> 
  group_by(UF) |> 
  summarise(Tmax_anual = mean(Tmax, na.rm = T))

TMAX_UF

# A tibble: 26 × 2
   UF    Tmax_anual
   <chr>      <dbl>
 1 AC          31.8
 2 AL          29.5
 3 AM          32.5
 4 AP          31.9
 5 BA          30.8
 6 CE          32.3
 7 DF          27.0
 8 ES          29.7
 9 GO          30.8
10 MA          33.1
# ℹ 16 more rows
…
